Lab 8: Hyperparameter Tuning
…
Both hidden units and penalty (amount of regularization) have a high r-squared, a low root mean squared error, and relatively low mean absolute error. In general, the parameters performed well. A small to moderate number of hidden units and low dropout are ideal for this model.

Check the skill of the tuned model

Collect Metrics/Show Best/Describe in Plain Language

mod_metrics <- collect_metrics(model_params)
print(mod_metrics)

# A tibble: 75 × 8
   hidden_units  penalty .metric .estimator  mean     n std_err .config         
          <int>    <dbl> <chr>   <chr>      <dbl> <int>   <dbl> <chr>           
 1            1 6.81e- 5 mae     standard   0.251    10 0.00993 Preprocessor1_M…
 2            1 6.81e- 5 rmse    standard   0.312    10 0.0114  Preprocessor1_M…
 3            1 6.81e- 5 rsq     standard   0.934    10 0.00545 Preprocessor1_M…
 4            1 8.25e- 8 mae     standard   0.251    10 0.00998 Preprocessor1_M…
 5            1 8.25e- 8 rmse    standard   0.312    10 0.0114  Preprocessor1_M…
 6            1 8.25e- 8 rsq     standard   0.934    10 0.00549 Preprocessor1_M…
 7            1 2.15e- 2 mae     standard   0.262    10 0.0108  Preprocessor1_M…
 8            1 2.15e- 2 rmse    standard   0.326    10 0.0130  Preprocessor1_M…
 9            1 2.15e- 2 rsq     standard   0.928    10 0.00588 Preprocessor1_M…
10            2 6.81e-10 mae     standard   0.202    10 0.00575 Preprocessor1_M…
# ℹ 65 more rows
…
