Lab 3: COVID Wrangling
…
Rows: 3195 Columns: 67
── Column specification ────────────────────────────────────────────────────────
Delimiter: ","
chr  (5): SUMLEV, STATE, COUNTY, STNAME, CTYNAME
dbl (62): REGION, DIVISION, ESTIMATESBASE2020, POPESTIMATE2020, POPESTIMATE2...

ℹ Use `spec()` to retrieve the full column specification for this data.
ℹ Specify the column types or set `show_col_types = FALSE` to quiet this message.
Joining with `by = join_by(fips)`

print(pop_joined)

# A tibble: 2,502,832 × 23
   fips  date       cases deaths STNAME  CTYNAME     POPESTIMATE2021 NPOPCHG2021
   <chr> <date>     <dbl>  <dbl> <chr>   <chr>                 <dbl>       <dbl>
 1 01001 2020-03-24     1      0 Alabama Autauga Co…           59203         288
 2 01001 2020-03-25     4      0 Alabama Autauga Co…           59203         288
 3 01001 2020-03-26     6      0 Alabama Autauga Co…           59203         288
 4 01001 2020-03-27     6      0 Alabama Autauga Co…           59203         288
 5 01001 2020-03-28     6      0 Alabama Autauga Co…           59203         288
 6 01001 2020-03-29     6      0 Alabama Autauga Co…           59203         288
 7 01001 2020-03-30     7      0 Alabama Autauga Co…           59203         288
 8 01001 2020-03-31     7      0 Alabama Autauga Co…           59203         288
 9 01001 2020-04-01    10      0 Alabama Autauga Co…           59203         288
10 01001 2020-04-02    10      0 Alabama Autauga Co…           59203         288
# ℹ 2,502,822 more rows
# ℹ 15 more variables: BIRTHS2021 <dbl>, DEATHS2021 <dbl>,
#   NATURALCHG2021 <dbl>, INTERNATIONALMIG2021 <dbl>, DOMESTICMIG2021 <dbl>,
#   NETMIG2021 <dbl>, RESIDUAL2021 <dbl>, GQESTIMATES2021 <dbl>,
#   RBIRTH2021 <dbl>, RDEATH2021 <dbl>, RNATURALCHG2021 <dbl>,
#   RINTERNATIONALMIG2021 <dbl>, RDOMESTICMIG2021 <dbl>, RNETMIG2021 <dbl>,
#   daily_new_cases <dbl>

per_cap <- pop_joined %>% 
  filter(date == my.date) %>% 
  mutate(per_cap_cases = cases / POPESTIMATE2021,
         per_cap_new = daily_new_cases / POPESTIMATE2021,
         per_cap_deaths = deaths / POPESTIMATE2021)
print(per_cap)

# A tibble: 3,252 × 26
   fips  date       cases deaths STNAME  CTYNAME     POPESTIMATE2021 NPOPCHG2021
   <chr> <date>     <dbl>  <dbl> <chr>   <chr>                 <dbl>       <dbl>
 1 01001 2022-02-01 14782    167 Alabama Autauga Co…           59203         288
 2 01003 2022-02-01 52881    614 Alabama Baldwin Co…          239439        6212
 3 01005 2022-02-01  5276     84 Alabama Barbour Co…           24533        -436
 4 01007 2022-02-01  6130     96 Alabama Bibb County           22359         171
 5 01009 2022-02-01 14096    207 Alabama Blount Cou…           59079         -28
 6 01011 2022-02-01  2242     47 Alabama Bullock Co…           10143         -86
 7 01013 2022-02-01  4806    108 Alabama Butler Cou…           18890        -135
 8 01015 2022-02-01 30215    556 Alabama Calhoun Co…          115678        -565
 9 01017 2022-02-01  8213    148 Alabama Chambers C…           34488        -163
10 01019 2022-02-01  4851     69 Alabama Cherokee C…           25074         105
# ℹ 3,242 more rows
# ℹ 18 more variables: BIRTHS2021 <dbl>, DEATHS2021 <dbl>,
#   NATURALCHG2021 <dbl>, INTERNATIONALMIG2021 <dbl>, DOMESTICMIG2021 <dbl>,
#   NETMIG2021 <dbl>, RESIDUAL2021 <dbl>, GQESTIMATES2021 <dbl>,
#   RBIRTH2021 <dbl>, RDEATH2021 <dbl>, RNATURALCHG2021 <dbl>,
#   RINTERNATIONALMIG2021 <dbl>, RDOMESTICMIG2021 <dbl>, RNETMIG2021 <dbl>,
#   daily_new_cases <dbl>, per_cap_cases <dbl>, per_cap_new <dbl>, …
…
